﻿2018_Nov 7 20:11:26	jeudi 15 novembre 2018 11:05 à 11:15
2018_Nov 7 20:11:50	jeudi 15 novembre 2018 11:05 à 11:15
2018_Nov 7 20:13:08	jeudi 15 novembre 2018 11:05 à 11:15
2018_Nov 7 20:13:24	jeudi 15 novembre 2018 11:05 à 11:15
2018_Nov 7 20:13:41	jeudi 15 novembre 2018 11:05 à 11:15
2018_Nov 7 20:13:57	jeudi 15 novembre 2018 11:05 à 11:15
2018_Nov 7 20:14:13	jeudi 15 novembre 2018 11:05 à 11:15
2018_Nov 7 20:14:29	jeudi 15 novembre 2018 11:05 à 11:15
2018_Nov 7 20:14:46	jeudi 15 novembre 2018 11:05 à 11:15
2018_Nov 7 20:15:02	jeudi 15 novembre 2018 11:05 à 11:15
2018_Nov 7 20:15:18	jeudi 15 novembre 2018 11:05 à 11:15
2018_Nov 7 20:15:33	jeudi 15 novembre 2018 11:05 à 11:15
2018_Nov 7 20:15:50	jeudi 15 novembre 2018 11:05 à 11:15
2018_Nov 7 20:16:05	jeudi 15 novembre 2018 11:05 à 11:15
2018_Nov 7 20:16:20	jeudi 15 novembre 2018 11:05 à 11:15
2018_Nov 7 20:16:36	jeudi 15 novembre 2018 11:05 à 11:15
2018_Nov 7 20:16:51	jeudi 15 novembre 2018 11:05 à 11:15
2018_Nov 7 20:17:07	jeudi 15 novembre 2018 11:05 à 11:15
2018_Nov 7 20:17:23	jeudi 15 novembre 2018 11:05 à 11:15
2018_Nov 7 20:17:39	jeudi 15 novembre 2018 11:05 à 11:15
2018_Nov 7 20:17:54	jeudi 15 novembre 2018 11:05 à 11:15
2018_Nov 7 20:18:09	jeudi 15 novembre 2018 11:05 à 11:15
2018_Nov 7 20:25:38	jeudi 15 novembre 2018 11:05 à 11:15
2018_Nov 7 20:25:53	jeudi 15 novembre 2018 11:05 à 11:15
2018_Nov 7 20:26:23	jeudi 15 novembre 2018 11:05 à 11:15
2018_Nov 7 20:26:53	jeudi 15 novembre 2018 11:05 à 11:15
2018_Nov 7 20:27:08	jeudi 15 novembre 2018 11:05 à 11:15
2018_Nov 7 20:27:24	jeudi 15 novembre 2018 11:05 à 11:15
2018_Nov 7 20:27:44	jeudi 15 novembre 2018 11:05 à 11:15
2018_Nov 7 20:27:59	jeudi 15 novembre 2018 11:05 à 11:15
2018_Nov 7 20:28:15	jeudi 15 novembre 2018 11:05 à 11:15
2018_Nov 7 20:28:30	jeudi 15 novembre 2018 11:05 à 11:15
2018_Nov 7 20:28:46	jeudi 15 novembre 2018 11:05 à 11:15
2018_Nov 7 20:29:58	jeudi 15 novembre 2018 11:05 à 11:15
2018_Nov 7 20:30:13	jeudi 15 novembre 2018 11:05 à 11:15
2018_Nov 7 20:30:28	jeudi 15 novembre 2018 11:05 à 11:15
2018_Nov 7 20:30:47	jeudi 15 novembre 2018 11:05 à 11:15
2018_Nov 7 20:31:02	jeudi 15 novembre 2018 11:05 à 11:15
2018_Nov 7 20:31:18	jeudi 15 novembre 2018 11:05 à 11:15
2018_Nov 7 20:31:34	jeudi 15 novembre 2018 11:05 à 11:15
2018 Nov 7 20:31:58	jeudi 15 novembre 2018 11:05 à 11:15
2018 Nov 7 20:32:13	jeudi 15 novembre 2018 11:05 à 11:15
2018 Nov 7 20:32:30	jeudi 15 novembre 2018 11:05 à 11:15
2018 Nov 7 20:32:45	jeudi 15 novembre 2018 11:05 à 11:15
2018 Nov 7 20:33:02	jeudi 15 novembre 2018 11:05 à 11:15
2018 Nov 7 20:33:18	jeudi 15 novembre 2018 11:05 à 11:15
2018 Nov 7 20:33:33	jeudi 15 novembre 2018 11:05 à 11:15
2018 Nov 7 20:33:49	jeudi 15 novembre 2018 11:05 à 11:15
2018 Nov 7 20:34:07	jeudi 15 novembre 2018 11:05 à 11:15
2018 Nov 7 20:34:21	jeudi 15 novembre 2018 11:05 à 11:15
2018 Nov 8 11:09:12	jeudi 29 novembre 2018 09:55 à 10:05
2018 Nov 8 11:09:28	jeudi 29 novembre 2018 09:55 à 10:05
2018 Nov 8 11:40:46	jeudi 20 décembre 2018 09:15 à 09:25
2018 Nov 8 11:41:01	jeudi 20 décembre 2018 09:15 à 09:25
2018 Nov 8 11:41:17	jeudi 20 décembre 2018 09:25 à 09:35
2018 Nov 8 11:41:32	jeudi 20 décembre 2018 09:25 à 09:35
2018 Nov 8 11:41:48	jeudi 20 décembre 2018 09:25 à 09:35
2018 Nov 8 11:42:03	jeudi 20 décembre 2018 09:25 à 09:35
2018 Nov 8 11:42:18	jeudi 20 décembre 2018 09:25 à 09:35
2018 Nov 8 11:42:32	jeudi 20 décembre 2018 09:25 à 09:35
2018 Nov 8 11:42:48	jeudi 20 décembre 2018 09:25 à 09:35
2018 Nov 8 11:43:03	jeudi 20 décembre 2018 09:35 à 09:45
2018 Nov 8 11:43:19	jeudi 20 décembre 2018 09:35 à 09:45
2018 Nov 8 11:43:35	jeudi 20 décembre 2018 09:45 à 09:55
2018 Nov 8 11:43:51	jeudi 20 décembre 2018 09:45 à 09:55
2018 Nov 8 11:44:07	jeudi 20 décembre 2018 09:45 à 09:55
2018 Nov 8 11:44:23	jeudi 20 décembre 2018 09:45 à 09:55
2018 Nov 8 11:44:39	jeudi 20 décembre 2018 09:55 à 10:05
2018 Nov 8 11:44:54	jeudi 20 décembre 2018 09:55 à 10:05
2018 Nov 8 11:45:10	jeudi 20 décembre 2018 09:55 à 10:05
2018 Nov 8 11:45:26	jeudi 20 décembre 2018 10:05 à 10:15
2018 Nov 8 11:45:43	jeudi 20 décembre 2018 10:15 à 10:25
2018 Nov 8 11:46:00	jeudi 20 décembre 2018 10:15 à 10:25
2018 Nov 8 11:46:15	jeudi 20 décembre 2018 10:25 à 10:35
2018 Nov 8 11:46:31	jeudi 20 décembre 2018 10:25 à 10:35
2018 Nov 8 11:46:47	jeudi 20 décembre 2018 10:35 à 10:45
2018 Nov 8 11:47:02	jeudi 20 décembre 2018 10:35 à 10:45
2018 Nov 8 11:47:18	jeudi 20 décembre 2018 10:45 à 10:55
2018 Nov 8 11:47:33	jeudi 01 janvier 1970 09:47 à 09:47
2018 Nov 8 11:50:19	jeudi 20 décembre 2018 09:45 à 09:55
2018 Nov 8 11:50:33	jeudi 20 décembre 2018 09:45 à 09:55
2018 Nov 8 11:50:49	jeudi 20 décembre 2018 09:45 à 09:55
2018 Nov 8 11:51:04	mardi 18 décembre 2018 10:55 à 11:05
2018 Nov 8 11:51:19	mardi 18 décembre 2018 10:55 à 11:05
2018 Nov 8 11:51:34	mardi 18 décembre 2018 10:55 à 11:05
2018 Nov 8 11:52:50	mardi 04 décembre 2018 11:15 à 11:25
2018 Nov 8 11:53:05	mardi 04 décembre 2018 11:15 à 11:25
2018 Nov 8 11:55:22	jeudi 20 décembre 2018 10:05 à 10:15
2018 Nov 8 11:55:36	jeudi 20 décembre 2018 10:05 à 10:15
2018 Nov 8 11:55:51	jeudi 20 décembre 2018 10:35 à 10:45
2018 Nov 8 12:00:16	jeudi 20 décembre 2018 10:55 à 11:05
2018 Nov 8 12:10:22	jeudi 20 décembre 2018 10:55 à 11:05
2018 Nov 8 12:10:37	jeudi 01 janvier 1970 10:10 à 10:10
2018 Nov 8 13:20:18	vendredi 30 novembre 2018 09:25 à 09:35
2018 Nov 8 13:20:33	jeudi 01 janvier 1970 11:20 à 11:20
2018 Nov 8 13:25:17	jeudi 20 décembre 2018 10:55 à 11:05
2018 Nov 8 13:25:33	jeudi 20 décembre 2018 10:55 à 11:05
2018 Nov 8 13:34:17	jeudi 20 décembre 2018 10:15 à 10:25
2018 Nov 8 17:44:02	jeudi 22 novembre 2018 09:55 à 10:05
2018 Nov 8 17:44:17	jeudi 22 novembre 2018 09:55 à 10:05
2018 Nov 8 17:44:34	jeudi 01 janvier 1970 15:44 à 15:44
2018 Nov 9 11:20:57	vendredi 21 décembre 2018 09:15 à 09:25
2018 Nov 9 11:21:14	vendredi 21 décembre 2018 09:25 à 09:35
2018 Nov 9 11:21:29	vendredi 21 décembre 2018 09:25 à 09:35
2018 Nov 9 11:21:45	vendredi 21 décembre 2018 09:25 à 09:35
2018 Nov 9 11:22:03	vendredi 21 décembre 2018 09:35 à 09:45
2018 Nov 9 11:22:19	vendredi 21 décembre 2018 09:35 à 09:45
2018 Nov 9 11:22:34	vendredi 21 décembre 2018 09:45 à 09:55
2018 Nov 9 11:22:50	vendredi 21 décembre 2018 09:55 à 10:05
2018 Nov 9 11:23:06	vendredi 21 décembre 2018 09:55 à 10:05
2018 Nov 9 11:23:34	vendredi 21 décembre 2018 10:05 à 10:15
2018 Nov 9 11:23:54	vendredi 21 décembre 2018 10:15 à 10:25
2018 Nov 9 11:24:10	vendredi 21 décembre 2018 10:15 à 10:25
2018 Nov 9 11:24:29	vendredi 21 décembre 2018 10:15 à 10:25
2018 Nov 9 11:24:44	vendredi 21 décembre 2018 10:15 à 10:25
2018 Nov 9 11:25:00	lundi 12 novembre 2018 09:45 à 09:55
2018 Nov 9 11:25:15	lundi 12 novembre 2018 09:45 à 09:55
2018 Nov 9 11:25:34	lundi 12 novembre 2018 09:45 à 09:55
2018 Nov 9 11:25:50	lundi 12 novembre 2018 09:45 à 09:55
2018 Nov 9 11:26:06	vendredi 21 décembre 2018 10:25 à 10:35
2018 Nov 9 11:26:22	vendredi 21 décembre 2018 10:25 à 10:35
2018 Nov 9 11:26:38	vendredi 21 décembre 2018 10:25 à 10:35
2018 Nov 9 11:26:54	vendredi 21 décembre 2018 10:35 à 10:45
2018 Nov 9 11:27:10	vendredi 21 décembre 2018 10:35 à 10:45
2018 Nov 9 11:27:25	vendredi 21 décembre 2018 10:35 à 10:45
2018 Nov 9 11:27:47	vendredi 21 décembre 2018 10:45 à 10:55
2018 Nov 9 11:30:16	vendredi 21 décembre 2018 09:45 à 09:55
2018 Nov 9 11:30:32	vendredi 21 décembre 2018 09:45 à 09:55
2018 Nov 9 12:25:30	jeudi 01 janvier 1970 10:25 à 10:25
2018 Nov 9 12:30:17	vendredi 21 décembre 2018 10:25 à 10:35
2018 Nov 9 12:30:33	vendredi 21 décembre 2018 10:25 à 10:35
2018 Nov 9 12:30:50	vendredi 21 décembre 2018 10:25 à 10:35
2018 Nov 9 12:40:15	vendredi 21 décembre 2018 10:25 à 10:35
2018 Nov 9 12:40:32	vendredi 21 décembre 2018 10:25 à 10:35
2018 Nov 9 12:40:47	vendredi 21 décembre 2018 10:25 à 10:35
2018 Nov 9 12:41:04	jeudi 01 janvier 1970 10:41 à 10:41
2018 Nov 10 02:41:39	lundi 12 novembre 2018 10:45 à 10:55
2018 Nov 10 02:42:00	lundi 12 novembre 2018 10:45 à 10:55
2018 Nov 10 02:42:21	lundi 12 novembre 2018 10:45 à 10:55
2018 Nov 10 02:42:37	lundi 12 novembre 2018 10:45 à 10:55
2018 Nov 10 02:42:51	lundi 12 novembre 2018 10:45 à 10:55
2018 Nov 10 02:43:06	lundi 12 novembre 2018 10:45 à 10:55
2018 Nov 10 02:43:23	lundi 12 novembre 2018 10:45 à 10:55
2018 Nov 10 02:43:38	lundi 12 novembre 2018 10:45 à 10:55
2018 Nov 10 02:43:53	lundi 12 novembre 2018 10:45 à 10:55
2018 Nov 10 02:44:07	lundi 12 novembre 2018 10:45 à 10:55
2018 Nov 10 02:44:23	lundi 12 novembre 2018 10:45 à 10:55
2018 Nov 10 02:44:39	lundi 12 novembre 2018 10:45 à 10:55
2018 Nov 10 02:44:55	lundi 12 novembre 2018 10:45 à 10:55
2018 Nov 10 02:45:11	lundi 12 novembre 2018 10:45 à 10:55
2018 Nov 10 02:45:26	lundi 12 novembre 2018 10:45 à 10:55
2018 Nov 10 02:45:41	lundi 12 novembre 2018 10:45 à 10:55
2018 Nov 10 02:45:56	lundi 12 novembre 2018 10:45 à 10:55
2018 Nov 10 02:46:10	lundi 12 novembre 2018 10:45 à 10:55
2018 Nov 10 02:46:26	lundi 12 novembre 2018 10:45 à 10:55
2018 Nov 10 02:46:42	lundi 12 novembre 2018 10:45 à 10:55
2018 Nov 10 02:46:57	lundi 12 novembre 2018 10:45 à 10:55
2018 Nov 10 02:47:12	lundi 12 novembre 2018 10:45 à 10:55
2018 Nov 10 02:47:27	lundi 12 novembre 2018 10:45 à 10:55
2018 Nov 10 03:50:19	lundi 12 novembre 2018 10:45 à 10:55
2018 Nov 10 03:50:35	lundi 12 novembre 2018 10:45 à 10:55
2018 Nov 10 03:50:50	lundi 12 novembre 2018 10:45 à 10:55
2018 Nov 10 03:51:05	lundi 12 novembre 2018 10:45 à 10:55
2018 Nov 10 03:51:20	lundi 12 novembre 2018 10:45 à 10:55
2018 Nov 10 03:51:34	lundi 12 novembre 2018 10:45 à 10:55
2018 Nov 10 03:51:50	lundi 12 novembre 2018 10:45 à 10:55
2018 Nov 10 03:52:06	lundi 12 novembre 2018 10:45 à 10:55
2018 Nov 10 03:52:21	lundi 12 novembre 2018 10:45 à 10:55
2018 Nov 10 03:52:36	lundi 12 novembre 2018 10:45 à 10:55
2018 Nov 10 03:52:51	lundi 12 novembre 2018 10:45 à 10:55
2018 Nov 10 03:53:06	lundi 12 novembre 2018 10:45 à 10:55
2018 Nov 10 03:53:21	lundi 12 novembre 2018 10:45 à 10:55
2018 Nov 10 03:53:36	lundi 12 novembre 2018 10:45 à 10:55
2018 Nov 10 03:53:51	lundi 12 novembre 2018 10:45 à 10:55
2018 Nov 10 03:54:05	lundi 12 novembre 2018 10:45 à 10:55
2018 Nov 10 03:54:19	lundi 12 novembre 2018 10:45 à 10:55
2018 Nov 10 03:54:35	lundi 12 novembre 2018 10:45 à 10:55
2018 Nov 10 03:54:51	lundi 12 novembre 2018 10:45 à 10:55
2018 Nov 10 03:55:06	lundi 12 novembre 2018 10:45 à 10:55
2018 Nov 10 03:55:21	lundi 12 novembre 2018 10:45 à 10:55
2018 Nov 10 03:55:37	lundi 12 novembre 2018 10:45 à 10:55
2018 Nov 10 03:55:52	lundi 12 novembre 2018 10:45 à 10:55
2018 Nov 10 03:56:10	lundi 12 novembre 2018 10:45 à 10:55
2018 Nov 10 03:56:25	lundi 12 novembre 2018 10:45 à 10:55
2018 Nov 10 03:56:40	lundi 12 novembre 2018 10:45 à 10:55
2018 Nov 10 03:56:56	lundi 12 novembre 2018 10:45 à 10:55
2018 Nov 10 03:57:11	lundi 12 novembre 2018 10:45 à 10:55
2018 Nov 10 03:57:25	lundi 12 novembre 2018 10:45 à 10:55
2018 Nov 10 03:57:39	lundi 12 novembre 2018 10:45 à 10:55
2018 Nov 10 03:57:54	lundi 12 novembre 2018 10:45 à 10:55
2018 Nov 10 03:58:08	lundi 12 novembre 2018 10:45 à 10:55
2018 Nov 10 03:58:23	lundi 12 novembre 2018 10:45 à 10:55
2018 Nov 10 03:58:37	lundi 12 novembre 2018 10:45 à 10:55
2018 Nov 10 03:58:52	lundi 12 novembre 2018 10:45 à 10:55
2018 Nov 10 03:59:07	lundi 12 novembre 2018 10:45 à 10:55
2018 Nov 10 03:59:23	lundi 12 novembre 2018 10:45 à 10:55
2018 Nov 10 03:59:49	lundi 12 novembre 2018 10:45 à 10:55
2018 Nov 10 04:00:05	lundi 12 novembre 2018 10:45 à 10:55
2018 Nov 10 04:00:21	lundi 12 novembre 2018 10:45 à 10:55
2018 Nov 10 04:00:37	lundi 12 novembre 2018 10:45 à 10:55
2018 Nov 10 04:00:50	lundi 12 novembre 2018 10:45 à 10:55
2018 Nov 10 04:01:07	lundi 12 novembre 2018 10:45 à 10:55
2018 Nov 10 04:01:22	lundi 12 novembre 2018 10:45 à 10:55
2018 Nov 10 04:01:38	lundi 12 novembre 2018 10:45 à 10:55
2018 Nov 10 04:01:53	lundi 12 novembre 2018 10:45 à 10:55
2018 Nov 10 04:02:09	lundi 12 novembre 2018 10:45 à 10:55
2018 Nov 10 04:02:24	lundi 12 novembre 2018 10:45 à 10:55
2018 Nov 10 04:02:40	lundi 12 novembre 2018 10:45 à 10:55
2018 Nov 10 04:02:55	lundi 12 novembre 2018 10:45 à 10:55
2018 Nov 10 04:03:09	lundi 12 novembre 2018 10:45 à 10:55
2018 Nov 10 04:03:23	lundi 12 novembre 2018 10:45 à 10:55
2018 Nov 10 04:03:38	lundi 12 novembre 2018 10:45 à 10:55
2018 Nov 10 04:03:54	lundi 12 novembre 2018 10:45 à 10:55
2018 Nov 10 04:04:08	lundi 12 novembre 2018 10:45 à 10:55
2018 Nov 10 04:04:23	lundi 12 novembre 2018 10:45 à 10:55
2018 Nov 10 04:04:38	lundi 12 novembre 2018 10:45 à 10:55
2018 Nov 10 04:04:52	lundi 12 novembre 2018 10:45 à 10:55
2018 Nov 10 04:05:08	lundi 12 novembre 2018 10:45 à 10:55
2018 Nov 10 04:05:22	lundi 12 novembre 2018 10:45 à 10:55
2018 Nov 10 04:05:38	lundi 12 novembre 2018 10:45 à 10:55
2018 Nov 10 04:05:52	lundi 12 novembre 2018 10:45 à 10:55
2018 Nov 10 04:06:07	lundi 12 novembre 2018 10:45 à 10:55
2018 Nov 10 04:06:22	lundi 12 novembre 2018 10:45 à 10:55
2018 Nov 10 04:06:37	lundi 12 novembre 2018 10:45 à 10:55
2018 Nov 10 04:06:52	lundi 12 novembre 2018 10:45 à 10:55
2018 Nov 10 04:07:06	lundi 12 novembre 2018 10:45 à 10:55
2018 Nov 10 04:07:21	lundi 12 novembre 2018 10:45 à 10:55
2018 Nov 10 04:07:37	lundi 12 novembre 2018 10:45 à 10:55
2018 Nov 10 04:07:52	lundi 12 novembre 2018 10:45 à 10:55
2018 Nov 10 04:08:08	lundi 12 novembre 2018 10:45 à 10:55
2018 Nov 10 04:08:24	lundi 12 novembre 2018 10:45 à 10:55
2018 Nov 10 04:08:40	lundi 12 novembre 2018 10:45 à 10:55
2018 Nov 10 04:08:55	lundi 12 novembre 2018 10:45 à 10:55
2018 Nov 10 04:09:13	lundi 12 novembre 2018 10:45 à 10:55
2018 Nov 10 04:09:28	lundi 12 novembre 2018 10:45 à 10:55
2018 Nov 10 04:09:45	lundi 12 novembre 2018 10:45 à 10:55
2018 Nov 10 04:10:00	lundi 12 novembre 2018 10:45 à 10:55
2018 Nov 10 04:10:36	lundi 12 novembre 2018 10:45 à 10:55
2018 Nov 10 04:11:14	lundi 12 novembre 2018 10:45 à 10:55
2018 Nov 10 04:11:30	lundi 12 novembre 2018 10:45 à 10:55
2018 Nov 10 04:12:07	lundi 12 novembre 2018 10:45 à 10:55
2018 Nov 10 04:12:22	lundi 12 novembre 2018 10:45 à 10:55
2018 Nov 10 04:12:37	lundi 12 novembre 2018 10:45 à 10:55
2018 Nov 10 04:12:53	lundi 12 novembre 2018 10:45 à 10:55
2018 Nov 10 04:13:09	lundi 12 novembre 2018 10:45 à 10:55
2018 Nov 10 04:13:24	lundi 12 novembre 2018 10:45 à 10:55
2018 Nov 10 04:13:40	lundi 12 novembre 2018 10:45 à 10:55
2018 Nov 10 04:13:55	lundi 12 novembre 2018 10:45 à 10:55
2018 Nov 10 04:14:11	lundi 12 novembre 2018 10:45 à 10:55
2018 Nov 10 04:14:26	lundi 12 novembre 2018 10:45 à 10:55
2018 Nov 10 04:14:42	lundi 12 novembre 2018 10:45 à 10:55
2018 Nov 10 04:14:56	lundi 12 novembre 2018 10:45 à 10:55
2018 Nov 10 04:15:12	lundi 12 novembre 2018 10:45 à 10:55
2018 Nov 10 04:15:26	lundi 12 novembre 2018 10:45 à 10:55
2018 Nov 10 04:15:41	lundi 12 novembre 2018 10:45 à 10:55
2018 Nov 10 04:16:17	lundi 12 novembre 2018 10:45 à 10:55
2018 Nov 10 04:16:32	lundi 12 novembre 2018 10:45 à 10:55
2018 Nov 10 04:16:47	lundi 12 novembre 2018 10:45 à 10:55
2018 Nov 10 04:17:01	lundi 12 novembre 2018 10:45 à 10:55
2018 Nov 10 04:17:16	lundi 12 novembre 2018 10:45 à 10:55
2018 Nov 10 04:18:14	lundi 12 novembre 2018 10:45 à 10:55
2018 Nov 10 04:18:30	lundi 12 novembre 2018 10:45 à 10:55
2018 Nov 10 04:18:45	lundi 12 novembre 2018 10:45 à 10:55
2018 Nov 10 04:19:01	lundi 12 novembre 2018 10:45 à 10:55
2018 Nov 10 04:19:16	lundi 12 novembre 2018 10:45 à 10:55
2018 Nov 10 04:19:30	lundi 12 novembre 2018 10:45 à 10:55
2018 Nov 10 04:19:45	lundi 12 novembre 2018 10:45 à 10:55
2018 Nov 10 04:20:00	lundi 12 novembre 2018 10:45 à 10:55
2018 Nov 10 04:20:16	lundi 12 novembre 2018 10:45 à 10:55
2018 Nov 10 04:20:31	lundi 12 novembre 2018 10:45 à 10:55
2018 Nov 10 04:20:47	lundi 12 novembre 2018 10:45 à 10:55
2018 Nov 10 04:21:02	lundi 12 novembre 2018 10:45 à 10:55
2018 Nov 10 04:21:18	lundi 12 novembre 2018 10:45 à 10:55
2018 Nov 10 04:21:34	lundi 12 novembre 2018 10:45 à 10:55
2018 Nov 10 04:21:47	lundi 12 novembre 2018 10:45 à 10:55
2018 Nov 10 04:22:02	lundi 12 novembre 2018 10:45 à 10:55
2018 Nov 10 04:22:38	lundi 12 novembre 2018 10:45 à 10:55
2018 Nov 10 04:23:15	lundi 12 novembre 2018 10:45 à 10:55
2018 Nov 10 04:23:29	lundi 12 novembre 2018 10:45 à 10:55
2018 Nov 10 04:23:44	lundi 12 novembre 2018 10:45 à 10:55
2018 Nov 10 04:23:59	lundi 12 novembre 2018 10:45 à 10:55
2018 Nov 10 04:24:14	lundi 12 novembre 2018 10:45 à 10:55
2018 Nov 10 04:24:51	lundi 12 novembre 2018 10:45 à 10:55
2018 Nov 10 04:25:26	lundi 12 novembre 2018 10:45 à 10:55
2018 Nov 10 04:25:42	lundi 12 novembre 2018 10:45 à 10:55
2018 Nov 10 04:26:43	lundi 12 novembre 2018 10:45 à 10:55
2018 Nov 10 04:26:59	lundi 12 novembre 2018 10:45 à 10:55
2018 Nov 10 04:27:15	lundi 12 novembre 2018 10:45 à 10:55
2018 Nov 10 04:27:31	lundi 12 novembre 2018 10:45 à 10:55
2018 Nov 10 04:27:48	lundi 12 novembre 2018 10:45 à 10:55
2018 Nov 10 04:28:02	lundi 12 novembre 2018 10:45 à 10:55
2018 Nov 10 04:28:20	lundi 12 novembre 2018 10:45 à 10:55
2018 Nov 10 04:28:34	lundi 12 novembre 2018 10:45 à 10:55
2018 Nov 10 04:28:50	lundi 12 novembre 2018 10:45 à 10:55
2018 Nov 10 04:29:05	lundi 12 novembre 2018 10:45 à 10:55
2018 Nov 10 04:29:21	lundi 12 novembre 2018 10:45 à 10:55
2018 Nov 10 04:29:37	lundi 12 novembre 2018 10:45 à 10:55
2018 Nov 10 04:30:14	lundi 12 novembre 2018 10:45 à 10:55
2018 Nov 10 04:30:31	lundi 12 novembre 2018 10:45 à 10:55
2018 Nov 10 04:30:47	lundi 12 novembre 2018 10:45 à 10:55
2018 Nov 10 04:31:05	lundi 12 novembre 2018 10:45 à 10:55
2018 Nov 10 04:31:20	lundi 12 novembre 2018 10:45 à 10:55
2018 Nov 10 04:31:35	lundi 12 novembre 2018 10:45 à 10:55
2018 Nov 10 04:31:51	lundi 12 novembre 2018 10:45 à 10:55
2018 Nov 10 04:32:07	lundi 12 novembre 2018 10:45 à 10:55
2018 Nov 10 04:32:22	lundi 12 novembre 2018 10:45 à 10:55
2018 Nov 10 04:32:36	lundi 12 novembre 2018 10:45 à 10:55
2018 Nov 10 04:32:51	lundi 12 novembre 2018 10:45 à 10:55
2018 Nov 10 04:33:06	lundi 12 novembre 2018 10:45 à 10:55
2018 Nov 10 04:33:22	lundi 12 novembre 2018 10:45 à 10:55
2018 Nov 10 04:33:37	lundi 12 novembre 2018 10:45 à 10:55
2018 Nov 10 04:33:52	lundi 12 novembre 2018 10:45 à 10:55
2018 Nov 10 04:34:08	lundi 12 novembre 2018 10:45 à 10:55
2018 Nov 10 04:34:23	lundi 12 novembre 2018 10:45 à 10:55
2018 Nov 10 04:34:38	lundi 12 novembre 2018 10:45 à 10:55
2018 Nov 10 04:34:53	lundi 12 novembre 2018 10:45 à 10:55
2018 Nov 10 04:35:08	lundi 12 novembre 2018 10:45 à 10:55
2018 Nov 10 04:35:23	lundi 12 novembre 2018 10:45 à 10:55
2018 Nov 10 04:35:40	lundi 12 novembre 2018 10:45 à 10:55
2018 Nov 10 04:35:55	lundi 12 novembre 2018 10:45 à 10:55
2018 Nov 10 04:36:11	lundi 12 novembre 2018 10:45 à 10:55
2018 Nov 10 04:36:27	lundi 12 novembre 2018 10:45 à 10:55
2018 Nov 10 04:36:42	lundi 12 novembre 2018 10:45 à 10:55
2018 Nov 10 04:36:57	lundi 12 novembre 2018 10:45 à 10:55
2018 Nov 10 04:37:15	lundi 12 novembre 2018 10:45 à 10:55
2018 Nov 10 04:37:30	lundi 12 novembre 2018 10:45 à 10:55
2018 Nov 10 04:37:46	lundi 12 novembre 2018 10:45 à 10:55
2018 Nov 10 04:38:01	lundi 12 novembre 2018 10:45 à 10:55
2018 Nov 10 04:38:18	lundi 12 novembre 2018 10:45 à 10:55
2018 Nov 10 04:38:32	jeudi 01 janvier 1970 02:38 à 02:38
2018 Nov 10 04:39:34	lundi 12 novembre 2018 10:45 à 10:55
2018 Nov 10 04:39:48	lundi 12 novembre 2018 10:45 à 10:55
2018 Nov 10 04:40:04	lundi 12 novembre 2018 10:45 à 10:55
2018 Nov 10 04:40:20	lundi 12 novembre 2018 10:45 à 10:55
2018 Nov 10 04:40:36	lundi 12 novembre 2018 10:45 à 10:55
2018 Nov 10 04:40:52	lundi 12 novembre 2018 10:45 à 10:55
2018 Nov 10 04:41:08	lundi 12 novembre 2018 10:45 à 10:55
2018 Nov 10 04:41:24	lundi 12 novembre 2018 10:45 à 10:55
2018 Nov 10 04:41:39	lundi 12 novembre 2018 10:45 à 10:55
2018 Nov 10 04:41:55	lundi 12 novembre 2018 10:45 à 10:55
2018 Nov 10 04:42:10	lundi 12 novembre 2018 10:45 à 10:55
2018 Nov 10 04:42:25	lundi 12 novembre 2018 10:45 à 10:55
2018 Nov 10 04:42:40	lundi 12 novembre 2018 10:45 à 10:55
2018 Nov 10 04:42:55	lundi 12 novembre 2018 10:45 à 10:55
2018 Nov 10 04:43:10	lundi 12 novembre 2018 10:45 à 10:55
2018 Nov 10 04:43:26	lundi 12 novembre 2018 10:45 à 10:55
2018 Nov 10 04:43:41	lundi 12 novembre 2018 10:45 à 10:55
2018 Nov 10 04:43:56	lundi 12 novembre 2018 10:45 à 10:55
2018 Nov 10 04:44:10	lundi 12 novembre 2018 10:45 à 10:55
2018 Nov 10 04:44:26	lundi 12 novembre 2018 10:45 à 10:55
2018 Nov 10 04:44:41	lundi 12 novembre 2018 10:45 à 10:55
2018 Nov 10 04:44:56	lundi 12 novembre 2018 10:45 à 10:55
2018 Nov 10 04:45:54	lundi 12 novembre 2018 10:45 à 10:55
2018 Nov 10 04:46:08	lundi 12 novembre 2018 10:45 à 10:55
2018 Nov 10 04:46:23	lundi 12 novembre 2018 10:45 à 10:55
2018 Nov 10 04:46:38	lundi 12 novembre 2018 10:45 à 10:55
2018 Nov 10 04:46:54	lundi 12 novembre 2018 10:45 à 10:55
2018 Nov 10 04:47:09	lundi 12 novembre 2018 10:45 à 10:55
2018 Nov 10 04:47:23	lundi 12 novembre 2018 10:45 à 10:55
2018 Nov 10 04:47:38	lundi 12 novembre 2018 10:45 à 10:55
2018 Nov 10 04:47:54	lundi 12 novembre 2018 10:45 à 10:55
2018 Nov 10 04:48:07	lundi 12 novembre 2018 10:45 à 10:55
2018 Nov 10 04:48:22	lundi 12 novembre 2018 10:45 à 10:55
2018 Nov 10 04:48:38	lundi 12 novembre 2018 10:45 à 10:55
2018 Nov 10 04:48:52	lundi 12 novembre 2018 10:45 à 10:55
2018 Nov 10 04:49:29	lundi 12 novembre 2018 10:45 à 10:55
2018 Nov 10 04:49:44	lundi 12 novembre 2018 10:45 à 10:55
2018 Nov 10 04:49:59	lundi 12 novembre 2018 10:45 à 10:55
2018 Nov 10 04:50:14	lundi 12 novembre 2018 10:45 à 10:55
2018 Nov 10 04:50:29	lundi 12 novembre 2018 10:45 à 10:55
2018 Nov 10 04:50:43	lundi 12 novembre 2018 10:45 à 10:55
2018 Nov 10 04:51:19	lundi 12 novembre 2018 10:45 à 10:55
2018 Nov 10 04:51:56	lundi 12 novembre 2018 10:45 à 10:55
2018 Nov 10 04:52:10	lundi 12 novembre 2018 10:45 à 10:55
2018 Nov 10 04:52:47	lundi 12 novembre 2018 10:45 à 10:55
2018 Nov 10 04:53:01	lundi 12 novembre 2018 10:45 à 10:55
2018 Nov 10 04:53:15	lundi 12 novembre 2018 10:45 à 10:55
2018 Nov 10 04:53:30	lundi 12 novembre 2018 10:45 à 10:55
2018 Nov 10 04:53:45	lundi 12 novembre 2018 10:45 à 10:55
2018 Nov 10 04:54:01	lundi 12 novembre 2018 10:45 à 10:55
2018 Nov 10 04:54:16	lundi 12 novembre 2018 10:45 à 10:55
2018 Nov 10 04:54:31	lundi 12 novembre 2018 10:45 à 10:55
2018 Nov 10 04:54:46	lundi 12 novembre 2018 10:45 à 10:55
2018 Nov 10 04:55:01	lundi 12 novembre 2018 10:45 à 10:55
2018 Nov 10 04:55:17	lundi 12 novembre 2018 10:45 à 10:55
2018 Nov 10 04:55:33	lundi 12 novembre 2018 10:45 à 10:55
2018 Nov 10 04:55:48	lundi 12 novembre 2018 10:45 à 10:55
2018 Nov 10 04:56:04	lundi 12 novembre 2018 10:45 à 10:55
2018 Nov 10 04:56:18	lundi 12 novembre 2018 10:45 à 10:55
2018 Nov 10 04:56:34	lundi 12 novembre 2018 10:45 à 10:55
2018 Nov 10 04:56:49	lundi 12 novembre 2018 10:45 à 10:55
2018 Nov 10 04:57:04	lundi 12 novembre 2018 10:45 à 10:55
2018 Nov 10 04:57:20	lundi 12 novembre 2018 10:45 à 10:55
2018 Nov 10 04:57:36	lundi 12 novembre 2018 10:45 à 10:55
2018 Nov 10 04:57:51	lundi 12 novembre 2018 10:45 à 10:55
2018 Nov 10 04:58:06	lundi 12 novembre 2018 10:45 à 10:55
2018 Nov 10 04:58:46	lundi 12 novembre 2018 10:45 à 10:55
2018 Nov 10 04:59:01	lundi 12 novembre 2018 10:45 à 10:55
2018 Nov 10 04:59:17	lundi 12 novembre 2018 10:45 à 10:55
2018 Nov 10 04:59:32	lundi 12 novembre 2018 10:45 à 10:55
2018 Nov 10 04:59:47	lundi 12 novembre 2018 10:45 à 10:55
2018 Nov 10 05:00:03	lundi 12 novembre 2018 10:45 à 10:55
2018 Nov 10 05:00:20	lundi 12 novembre 2018 10:45 à 10:55
2018 Nov 10 05:00:35	lundi 12 novembre 2018 10:45 à 10:55
2018 Nov 10 05:00:50	lundi 12 novembre 2018 10:45 à 10:55
2018 Nov 10 05:01:04	lundi 12 novembre 2018 10:45 à 10:55
2018 Nov 10 05:01:20	lundi 12 novembre 2018 10:45 à 10:55
2018 Nov 10 05:01:35	lundi 12 novembre 2018 10:45 à 10:55
2018 Nov 10 05:01:50	lundi 12 novembre 2018 10:45 à 10:55
2018 Nov 10 05:02:05	lundi 12 novembre 2018 10:45 à 10:55
2018 Nov 10 05:02:22	lundi 12 novembre 2018 10:45 à 10:55
2018 Nov 10 05:02:37	lundi 12 novembre 2018 10:45 à 10:55
2018 Nov 10 05:02:53	lundi 12 novembre 2018 10:45 à 10:55
2018 Nov 10 05:03:07	lundi 12 novembre 2018 10:45 à 10:55
2018 Nov 10 05:03:23	lundi 12 novembre 2018 10:45 à 10:55
2018 Nov 10 05:03:36	lundi 12 novembre 2018 10:45 à 10:55
2018 Nov 10 05:03:53	lundi 12 novembre 2018 10:45 à 10:55
2018 Nov 10 05:04:08	lundi 12 novembre 2018 10:45 à 10:55
2018 Nov 10 05:04:23	lundi 12 novembre 2018 10:45 à 10:55
2018 Nov 10 05:04:38	lundi 12 novembre 2018 10:45 à 10:55
2018 Nov 10 05:04:54	lundi 12 novembre 2018 10:45 à 10:55
2018 Nov 10 05:05:08	lundi 12 novembre 2018 10:45 à 10:55
2018 Nov 10 05:05:24	lundi 12 novembre 2018 10:45 à 10:55
2018 Nov 10 05:05:39	lundi 12 novembre 2018 10:45 à 10:55
2018 Nov 10 05:05:54	lundi 12 novembre 2018 10:45 à 10:55
2018 Nov 10 05:06:09	lundi 12 novembre 2018 10:45 à 10:55
2018 Nov 10 05:06:25	lundi 12 novembre 2018 10:45 à 10:55
2018 Nov 10 05:06:40	lundi 12 novembre 2018 10:45 à 10:55
2018 Nov 10 05:06:55	lundi 12 novembre 2018 10:45 à 10:55
2018 Nov 10 05:07:10	lundi 12 novembre 2018 10:45 à 10:55
2018 Nov 10 05:07:26	lundi 12 novembre 2018 10:45 à 10:55
2018 Nov 10 05:07:41	lundi 12 novembre 2018 10:45 à 10:55
2018 Nov 10 05:07:55	lundi 12 novembre 2018 10:45 à 10:55
2018 Nov 10 05:08:10	lundi 12 novembre 2018 10:45 à 10:55
2018 Nov 10 05:08:46	lundi 12 novembre 2018 10:45 à 10:55
2018 Nov 10 05:09:02	lundi 12 novembre 2018 10:45 à 10:55
2018 Nov 10 05:09:39	lundi 12 novembre 2018 10:45 à 10:55
2018 Nov 10 05:09:54	lundi 12 novembre 2018 10:45 à 10:55
2018 Nov 10 05:10:51	lundi 12 novembre 2018 10:45 à 10:55
2018 Nov 10 05:11:06	lundi 12 novembre 2018 10:45 à 10:55
2018 Nov 10 05:11:22	lundi 12 novembre 2018 10:45 à 10:55
2018 Nov 10 05:11:37	lundi 12 novembre 2018 10:45 à 10:55
2018 Nov 10 05:11:52	lundi 12 novembre 2018 10:45 à 10:55
2018 Nov 10 05:12:06	lundi 12 novembre 2018 10:45 à 10:55
2018 Nov 10 05:12:21	lundi 12 novembre 2018 10:45 à 10:55
2018 Nov 10 05:12:36	lundi 12 novembre 2018 10:45 à 10:55
2018 Nov 10 05:12:53	lundi 12 novembre 2018 10:45 à 10:55
2018 Nov 10 05:13:09	lundi 12 novembre 2018 10:45 à 10:55
2018 Nov 10 05:13:24	lundi 12 novembre 2018 10:45 à 10:55
2018 Nov 10 05:13:40	lundi 12 novembre 2018 10:45 à 10:55
2018 Nov 10 05:13:56	lundi 12 novembre 2018 10:45 à 10:55
2018 Nov 10 05:14:11	lundi 12 novembre 2018 10:45 à 10:55
2018 Nov 10 05:14:27	lundi 12 novembre 2018 10:45 à 10:55
2018 Nov 10 05:14:43	lundi 12 novembre 2018 10:45 à 10:55
2018 Nov 10 05:14:58	lundi 12 novembre 2018 10:45 à 10:55
2018 Nov 10 05:15:13	lundi 12 novembre 2018 10:45 à 10:55
2018 Nov 10 05:15:29	lundi 12 novembre 2018 10:45 à 10:55
2018 Nov 10 05:15:44	lundi 12 novembre 2018 10:45 à 10:55
2018 Nov 10 05:16:00	lundi 12 novembre 2018 10:45 à 10:55
2018 Nov 10 05:16:16	lundi 12 novembre 2018 10:45 à 10:55
2018 Nov 10 05:17:34	lundi 12 novembre 2018 10:45 à 10:55
2018 Nov 10 05:17:48	lundi 12 novembre 2018 10:45 à 10:55
2018 Nov 10 05:18:02	lundi 12 novembre 2018 10:45 à 10:55
2018 Nov 10 05:18:16	lundi 12 novembre 2018 10:45 à 10:55
2018 Nov 10 05:18:34	lundi 12 novembre 2018 10:45 à 10:55
2018 Nov 10 05:18:48	lundi 12 novembre 2018 10:45 à 10:55
2018 Nov 10 05:19:02	lundi 12 novembre 2018 10:45 à 10:55
2018 Nov 10 05:19:17	lundi 12 novembre 2018 10:45 à 10:55
2018 Nov 10 05:19:33	lundi 12 novembre 2018 10:45 à 10:55
2018 Nov 10 05:19:48	lundi 12 novembre 2018 10:45 à 10:55
2018 Nov 10 05:20:24	lundi 12 novembre 2018 10:45 à 10:55
2018 Nov 10 05:20:39	lundi 12 novembre 2018 10:45 à 10:55
2018 Nov 10 05:21:16	lundi 12 novembre 2018 10:45 à 10:55
2018 Nov 10 05:21:31	lundi 12 novembre 2018 10:45 à 10:55
2018 Nov 10 05:21:47	lundi 12 novembre 2018 10:45 à 10:55
2018 Nov 10 05:22:02	lundi 12 novembre 2018 10:45 à 10:55
2018 Nov 10 05:22:16	lundi 12 novembre 2018 10:45 à 10:55
2018 Nov 10 05:22:33	lundi 12 novembre 2018 10:45 à 10:55
2018 Nov 10 05:22:48	lundi 12 novembre 2018 10:45 à 10:55
2018 Nov 10 05:23:45	lundi 12 novembre 2018 10:45 à 10:55
2018 Nov 10 05:23:59	lundi 12 novembre 2018 10:45 à 10:55
2018 Nov 10 05:24:14	lundi 12 novembre 2018 10:45 à 10:55
2018 Nov 10 05:24:28	lundi 12 novembre 2018 10:45 à 10:55
2018 Nov 10 05:24:45	lundi 12 novembre 2018 10:45 à 10:55
2018 Nov 10 05:25:01	lundi 12 novembre 2018 10:45 à 10:55
2018 Nov 10 05:25:16	lundi 12 novembre 2018 10:45 à 10:55
2018 Nov 10 05:25:53	lundi 12 novembre 2018 10:45 à 10:55
2018 Nov 10 05:26:09	lundi 12 novembre 2018 10:45 à 10:55
2018 Nov 10 05:26:24	lundi 12 novembre 2018 10:45 à 10:55
2018 Nov 10 05:26:39	lundi 12 novembre 2018 10:45 à 10:55
2018 Nov 10 05:26:55	lundi 12 novembre 2018 10:45 à 10:55
2018 Nov 10 05:27:11	lundi 12 novembre 2018 10:45 à 10:55
2018 Nov 10 05:27:25	lundi 12 novembre 2018 10:45 à 10:55
2018 Nov 10 05:27:40	lundi 12 novembre 2018 10:45 à 10:55
2018 Nov 10 05:27:56	lundi 12 novembre 2018 10:45 à 10:55
2018 Nov 10 05:28:12	lundi 12 novembre 2018 10:45 à 10:55
2018 Nov 10 05:28:26	lundi 12 novembre 2018 10:45 à 10:55
2018 Nov 10 05:28:40	lundi 12 novembre 2018 10:45 à 10:55
2018 Nov 10 05:28:57	lundi 12 novembre 2018 10:45 à 10:55
2018 Nov 10 05:29:11	lundi 12 novembre 2018 10:45 à 10:55
2018 Nov 10 05:29:27	lundi 12 novembre 2018 10:45 à 10:55
2018 Nov 10 05:29:41	lundi 12 novembre 2018 10:45 à 10:55
2018 Nov 10 05:29:56	lundi 12 novembre 2018 10:45 à 10:55
2018 Nov 10 05:30:11	lundi 12 novembre 2018 10:45 à 10:55
2018 Nov 10 05:30:47	lundi 12 novembre 2018 10:45 à 10:55
2018 Nov 10 05:31:02	lundi 12 novembre 2018 10:45 à 10:55
2018 Nov 10 05:31:17	lundi 12 novembre 2018 10:45 à 10:55
2018 Nov 10 05:31:31	lundi 12 novembre 2018 10:45 à 10:55
2018 Nov 10 05:31:48	lundi 12 novembre 2018 10:45 à 10:55
2018 Nov 10 05:32:03	lundi 12 novembre 2018 10:45 à 10:55
2018 Nov 10 05:32:19	lundi 12 novembre 2018 10:45 à 10:55
2018 Nov 10 05:32:34	lundi 12 novembre 2018 10:45 à 10:55
2018 Nov 10 05:32:48	lundi 12 novembre 2018 10:45 à 10:55
2018 Nov 10 05:33:03	lundi 12 novembre 2018 10:45 à 10:55
2018 Nov 10 05:33:18	lundi 12 novembre 2018 10:45 à 10:55
2018 Nov 10 05:33:34	lundi 12 novembre 2018 10:45 à 10:55
2018 Nov 10 05:33:48	lundi 12 novembre 2018 10:45 à 10:55
2018 Nov 10 05:34:04	lundi 12 novembre 2018 10:45 à 10:55
2018 Nov 10 05:34:19	lundi 12 novembre 2018 10:45 à 10:55
2018 Nov 10 05:34:34	lundi 12 novembre 2018 10:45 à 10:55
2018 Nov 10 05:34:50	lundi 12 novembre 2018 10:45 à 10:55
2018 Nov 10 05:35:05	lundi 12 novembre 2018 10:45 à 10:55
2018 Nov 10 05:35:20	lundi 12 novembre 2018 10:45 à 10:55
2018 Nov 10 05:35:37	lundi 12 novembre 2018 10:45 à 10:55
2018 Nov 10 05:35:51	lundi 12 novembre 2018 10:45 à 10:55
2018 Nov 10 05:36:06	lundi 12 novembre 2018 10:45 à 10:55
2018 Nov 10 05:36:21	lundi 12 novembre 2018 10:45 à 10:55
2018 Nov 10 05:36:38	lundi 12 novembre 2018 10:45 à 10:55
2018 Nov 10 05:36:53	lundi 12 novembre 2018 10:45 à 10:55
2018 Nov 10 05:37:07	lundi 12 novembre 2018 10:45 à 10:55
2018 Nov 10 05:37:22	lundi 12 novembre 2018 10:45 à 10:55
2018 Nov 10 05:37:36	lundi 12 novembre 2018 10:45 à 10:55
2018 Nov 10 05:37:50	lundi 12 novembre 2018 10:45 à 10:55
2018 Nov 10 05:38:05	lundi 12 novembre 2018 10:45 à 10:55
2018 Nov 10 05:38:20	lundi 12 novembre 2018 10:45 à 10:55
2018 Nov 10 05:38:35	lundi 12 novembre 2018 10:45 à 10:55
2018 Nov 10 05:38:49	lundi 12 novembre 2018 10:45 à 10:55
2018 Nov 10 05:39:04	lundi 12 novembre 2018 10:45 à 10:55
2018 Nov 10 05:39:20	lundi 12 novembre 2018 10:45 à 10:55
2018 Nov 10 05:39:34	lundi 12 novembre 2018 10:45 à 10:55
2018 Nov 10 05:39:49	lundi 12 novembre 2018 10:45 à 10:55
2018 Nov 10 05:40:05	lundi 12 novembre 2018 10:45 à 10:55
2018 Nov 10 05:40:21	lundi 12 novembre 2018 10:45 à 10:55
2018 Nov 10 05:40:39	lundi 12 novembre 2018 10:45 à 10:55
2018 Nov 10 05:40:53	lundi 12 novembre 2018 10:45 à 10:55
2018 Nov 10 05:41:09	lundi 12 novembre 2018 10:45 à 10:55
2018 Nov 10 05:41:22	lundi 12 novembre 2018 10:45 à 10:55
2018 Nov 10 05:41:38	lundi 12 novembre 2018 10:45 à 10:55
2018 Nov 10 05:41:52	lundi 12 novembre 2018 10:45 à 10:55
2018 Nov 10 05:42:08	lundi 12 novembre 2018 10:45 à 10:55
2018 Nov 10 05:42:24	lundi 12 novembre 2018 10:45 à 10:55
2018 Nov 10 05:42:39	lundi 12 novembre 2018 10:45 à 10:55
2018 Nov 10 05:42:56	lundi 12 novembre 2018 10:45 à 10:55
2018 Nov 10 05:43:52	lundi 12 novembre 2018 10:45 à 10:55
2018 Nov 10 05:44:08	lundi 12 novembre 2018 10:45 à 10:55
2018 Nov 10 05:44:23	lundi 12 novembre 2018 10:45 à 10:55
2018 Nov 10 05:44:38	lundi 12 novembre 2018 10:45 à 10:55
2018 Nov 10 05:44:54	lundi 12 novembre 2018 10:45 à 10:55
2018 Nov 10 05:45:09	lundi 12 novembre 2018 10:45 à 10:55
2018 Nov 10 05:45:24	lundi 12 novembre 2018 10:45 à 10:55
2018 Nov 10 05:45:39	lundi 12 novembre 2018 10:45 à 10:55
2018 Nov 10 05:45:55	lundi 12 novembre 2018 10:45 à 10:55
2018 Nov 10 05:46:10	lundi 12 novembre 2018 10:45 à 10:55
2018 Nov 10 05:46:46	lundi 12 novembre 2018 10:45 à 10:55
2018 Nov 10 05:47:02	lundi 12 novembre 2018 10:45 à 10:55
2018 Nov 10 05:47:17	lundi 12 novembre 2018 10:45 à 10:55
2018 Nov 10 05:47:32	lundi 12 novembre 2018 10:45 à 10:55
2018 Nov 10 05:47:48	lundi 12 novembre 2018 10:45 à 10:55
2018 Nov 10 05:48:04	lundi 12 novembre 2018 10:45 à 10:55
2018 Nov 10 05:48:40	lundi 12 novembre 2018 10:45 à 10:55
2018 Nov 10 05:48:55	lundi 12 novembre 2018 10:45 à 10:55
2018 Nov 10 05:49:31	lundi 12 novembre 2018 10:45 à 10:55
2018 Nov 10 05:50:08	lundi 12 novembre 2018 10:45 à 10:55
2018 Nov 10 05:50:43	lundi 12 novembre 2018 10:45 à 10:55
2018 Nov 10 05:50:58	lundi 12 novembre 2018 10:45 à 10:55
2018 Nov 10 05:51:34	lundi 12 novembre 2018 10:45 à 10:55
2018 Nov 10 05:51:50	lundi 12 novembre 2018 10:45 à 10:55
2018 Nov 10 05:52:05	lundi 12 novembre 2018 10:45 à 10:55
2018 Nov 10 05:52:20	lundi 12 novembre 2018 10:45 à 10:55
2018 Nov 10 05:52:36	lundi 12 novembre 2018 10:45 à 10:55
2018 Nov 10 05:52:51	lundi 12 novembre 2018 10:45 à 10:55
2018 Nov 10 05:53:07	lundi 12 novembre 2018 10:45 à 10:55
2018 Nov 10 05:53:22	lundi 12 novembre 2018 10:45 à 10:55
2018 Nov 10 05:53:37	lundi 12 novembre 2018 10:45 à 10:55
2018 Nov 10 05:53:53	lundi 12 novembre 2018 10:45 à 10:55
2018 Nov 10 05:54:08	lundi 12 novembre 2018 10:45 à 10:55
2018 Nov 10 05:54:23	lundi 12 novembre 2018 10:45 à 10:55
2018 Nov 10 05:54:38	lundi 12 novembre 2018 10:45 à 10:55
2018 Nov 10 05:54:53	lundi 12 novembre 2018 10:45 à 10:55
2018 Nov 10 05:55:08	lundi 12 novembre 2018 10:45 à 10:55
2018 Nov 10 05:55:23	lundi 12 novembre 2018 10:45 à 10:55
2018 Nov 10 05:55:38	lundi 12 novembre 2018 10:45 à 10:55
2018 Nov 10 05:55:53	lundi 12 novembre 2018 10:45 à 10:55
2018 Nov 10 05:56:31	lundi 12 novembre 2018 10:45 à 10:55
2018 Nov 10 05:56:45	lundi 12 novembre 2018 10:45 à 10:55
2018 Nov 10 05:57:02	lundi 12 novembre 2018 10:45 à 10:55
2018 Nov 10 05:57:16	lundi 12 novembre 2018 10:45 à 10:55
2018 Nov 10 05:57:32	lundi 12 novembre 2018 10:45 à 10:55
2018 Nov 10 05:57:48	lundi 12 novembre 2018 10:45 à 10:55
2018 Nov 10 05:58:03	lundi 12 novembre 2018 10:45 à 10:55
2018 Nov 10 05:58:19	lundi 12 novembre 2018 10:45 à 10:55
2018 Nov 10 05:58:34	lundi 12 novembre 2018 10:45 à 10:55
2018 Nov 10 05:58:48	lundi 12 novembre 2018 10:45 à 10:55
2018 Nov 10 05:59:03	lundi 12 novembre 2018 10:45 à 10:55
2018 Nov 10 05:59:18	lundi 12 novembre 2018 10:45 à 10:55
2018 Nov 10 05:59:34	lundi 12 novembre 2018 10:45 à 10:55
2018 Nov 10 05:59:50	lundi 12 novembre 2018 10:45 à 10:55
2018 Nov 10 06:00:06	lundi 12 novembre 2018 10:45 à 10:55
2018 Nov 10 06:00:21	lundi 12 novembre 2018 10:45 à 10:55
2018 Nov 10 06:00:36	lundi 12 novembre 2018 10:45 à 10:55
2018 Nov 10 06:00:52	lundi 12 novembre 2018 10:45 à 10:55
2018 Nov 10 06:01:07	lundi 12 novembre 2018 10:45 à 10:55
2018 Nov 10 06:01:22	lundi 12 novembre 2018 10:45 à 10:55
2018 Nov 10 06:01:38	lundi 12 novembre 2018 10:45 à 10:55
2018 Nov 10 06:02:14	lundi 12 novembre 2018 10:45 à 10:55
2018 Nov 10 06:02:30	lundi 12 novembre 2018 10:45 à 10:55
2018 Nov 10 06:02:44	lundi 12 novembre 2018 10:45 à 10:55
2018 Nov 10 06:02:59	lundi 12 novembre 2018 10:45 à 10:55
2018 Nov 10 06:03:16	lundi 12 novembre 2018 10:45 à 10:55
2018 Nov 10 06:03:31	lundi 12 novembre 2018 10:45 à 10:55
2018 Nov 10 06:03:46	lundi 12 novembre 2018 10:45 à 10:55
2018 Nov 10 06:04:00	lundi 12 novembre 2018 10:45 à 10:55
2018 Nov 10 06:04:17	lundi 12 novembre 2018 10:45 à 10:55
2018 Nov 10 06:04:32	lundi 12 novembre 2018 10:45 à 10:55
2018 Nov 10 06:04:46	lundi 12 novembre 2018 10:45 à 10:55
2018 Nov 10 06:05:01	lundi 12 novembre 2018 10:45 à 10:55
2018 Nov 10 06:05:16	lundi 12 novembre 2018 10:45 à 10:55
2018 Nov 10 06:15:18	lundi 12 novembre 2018 10:45 à 10:55
2018 Nov 10 06:15:34	lundi 12 novembre 2018 10:45 à 10:55
2018 Nov 10 06:15:49	lundi 12 novembre 2018 10:45 à 10:55
2018 Nov 10 06:16:05	lundi 12 novembre 2018 10:45 à 10:55
2018 Nov 10 06:16:20	lundi 12 novembre 2018 10:45 à 10:55
2018 Nov 10 06:16:35	lundi 12 novembre 2018 10:45 à 10:55
2018 Nov 10 06:16:50	lundi 12 novembre 2018 10:45 à 10:55
2018 Nov 10 06:17:05	lundi 12 novembre 2018 10:45 à 10:55
2018 Nov 10 06:17:20	lundi 12 novembre 2018 10:45 à 10:55
2018 Nov 10 06:17:36	lundi 12 novembre 2018 10:45 à 10:55
2018 Nov 10 06:17:51	lundi 12 novembre 2018 10:45 à 10:55
2018 Nov 10 06:18:07	lundi 12 novembre 2018 10:45 à 10:55
2018 Nov 10 06:18:21	lundi 12 novembre 2018 10:45 à 10:55
2018 Nov 10 06:18:36	lundi 12 novembre 2018 10:45 à 10:55
2018 Nov 10 06:18:52	lundi 12 novembre 2018 10:45 à 10:55
2018 Nov 10 06:19:09	lundi 12 novembre 2018 10:45 à 10:55
2018 Nov 10 06:19:24	lundi 12 novembre 2018 10:45 à 10:55
2018 Nov 10 06:19:40	lundi 12 novembre 2018 10:45 à 10:55
2018 Nov 10 06:19:55	lundi 12 novembre 2018 10:45 à 10:55
2018 Nov 10 06:20:11	lundi 12 novembre 2018 10:45 à 10:55
2018 Nov 10 06:20:26	lundi 12 novembre 2018 10:45 à 10:55
2018 Nov 10 06:20:41	lundi 12 novembre 2018 10:45 à 10:55
2018 Nov 10 06:20:56	lundi 12 novembre 2018 10:45 à 10:55
2018 Nov 10 06:21:11	lundi 12 novembre 2018 10:45 à 10:55
2018 Nov 10 06:21:30	lundi 12 novembre 2018 10:45 à 10:55
2018 Nov 10 06:21:44	lundi 12 novembre 2018 10:45 à 10:55
2018 Nov 10 06:22:01	lundi 12 novembre 2018 10:45 à 10:55
2018 Nov 10 06:22:16	lundi 12 novembre 2018 10:45 à 10:55
2018 Nov 10 06:22:31	lundi 12 novembre 2018 10:45 à 10:55
2018 Nov 10 06:22:45	lundi 12 novembre 2018 10:45 à 10:55
2018 Nov 10 06:23:00	lundi 12 novembre 2018 10:45 à 10:55
2018 Nov 10 06:23:16	lundi 12 novembre 2018 10:45 à 10:55
2018 Nov 10 06:23:32	lundi 12 novembre 2018 10:45 à 10:55
2018 Nov 10 06:23:47	lundi 12 novembre 2018 10:45 à 10:55
2018 Nov 10 06:24:03	lundi 12 novembre 2018 10:45 à 10:55
2018 Nov 10 06:24:18	lundi 12 novembre 2018 10:45 à 10:55
2018 Nov 10 06:24:33	lundi 12 novembre 2018 10:45 à 10:55
2018 Nov 10 06:24:48	lundi 12 novembre 2018 10:45 à 10:55
2018 Nov 10 06:25:03	lundi 12 novembre 2018 10:45 à 10:55
2018 Nov 10 06:25:18	lundi 12 novembre 2018 10:45 à 10:55
2018 Nov 10 06:25:33	lundi 12 novembre 2018 10:45 à 10:55
2018 Nov 10 06:25:49	lundi 12 novembre 2018 10:45 à 10:55
2018 Nov 10 06:26:04	lundi 12 novembre 2018 10:45 à 10:55
2018 Nov 10 06:26:20	lundi 12 novembre 2018 10:45 à 10:55
2018 Nov 10 06:26:34	lundi 12 novembre 2018 10:45 à 10:55
2018 Nov 10 06:26:49	lundi 12 novembre 2018 10:45 à 10:55
2018 Nov 10 06:27:04	lundi 12 novembre 2018 10:45 à 10:55
2018 Nov 10 06:27:19	lundi 12 novembre 2018 10:45 à 10:55
2018 Nov 10 06:27:33	lundi 12 novembre 2018 10:45 à 10:55
2018 Nov 10 06:28:10	lundi 12 novembre 2018 10:45 à 10:55
2018 Nov 10 06:28:26	lundi 12 novembre 2018 10:45 à 10:55
2018 Nov 10 06:28:41	lundi 12 novembre 2018 10:45 à 10:55
2018 Nov 10 06:28:56	lundi 12 novembre 2018 10:45 à 10:55
2018 Nov 10 06:29:10	lundi 12 novembre 2018 10:45 à 10:55
2018 Nov 10 06:29:25	lundi 12 novembre 2018 10:45 à 10:55
2018 Nov 10 06:29:39	lundi 12 novembre 2018 10:45 à 10:55
2018 Nov 10 06:29:56	lundi 12 novembre 2018 10:45 à 10:55
2018 Nov 10 06:30:11	lundi 12 novembre 2018 10:45 à 10:55
2018 Nov 10 06:30:25	lundi 12 novembre 2018 10:45 à 10:55
2018 Nov 10 06:30:42	lundi 12 novembre 2018 10:45 à 10:55
2018 Nov 10 06:30:58	lundi 12 novembre 2018 10:45 à 10:55
2018 Nov 10 06:31:13	lundi 12 novembre 2018 10:45 à 10:55
2018 Nov 10 06:31:28	lundi 12 novembre 2018 10:45 à 10:55
2018 Nov 10 06:31:43	lundi 12 novembre 2018 10:45 à 10:55
2018 Nov 10 06:31:59	lundi 12 novembre 2018 10:45 à 10:55
2018 Nov 10 06:32:36	lundi 12 novembre 2018 10:45 à 10:55
2018 Nov 10 06:32:52	lundi 12 novembre 2018 10:45 à 10:55
2018 Nov 10 06:33:06	lundi 12 novembre 2018 10:45 à 10:55
2018 Nov 10 06:33:43	lundi 12 novembre 2018 10:45 à 10:55
2018 Nov 10 06:33:59	lundi 12 novembre 2018 10:45 à 10:55
2018 Nov 10 06:34:55	lundi 12 novembre 2018 10:45 à 10:55
2018 Nov 10 06:35:10	lundi 12 novembre 2018 10:45 à 10:55
2018 Nov 10 06:35:29	lundi 12 novembre 2018 10:45 à 10:55
2018 Nov 10 06:36:28	lundi 12 novembre 2018 10:45 à 10:55
2018 Nov 10 06:36:43	lundi 12 novembre 2018 10:45 à 10:55
2018 Nov 10 06:36:59	lundi 12 novembre 2018 10:45 à 10:55
2018 Nov 10 06:37:36	lundi 12 novembre 2018 10:45 à 10:55
2018 Nov 10 06:37:51	lundi 12 novembre 2018 10:45 à 10:55
2018 Nov 10 06:38:07	lundi 12 novembre 2018 10:45 à 10:55
2018 Nov 10 06:38:24	lundi 12 novembre 2018 10:45 à 10:55
2018 Nov 10 06:38:39	lundi 12 novembre 2018 10:45 à 10:55
2018 Nov 10 06:38:53	lundi 12 novembre 2018 10:45 à 10:55
2018 Nov 10 06:39:09	lundi 12 novembre 2018 10:45 à 10:55
2018 Nov 10 06:39:23	lundi 12 novembre 2018 10:45 à 10:55
2018 Nov 10 06:39:37	lundi 12 novembre 2018 10:45 à 10:55
2018 Nov 10 06:39:53	lundi 12 novembre 2018 10:45 à 10:55
2018 Nov 10 06:40:09	lundi 12 novembre 2018 10:45 à 10:55
2018 Nov 10 06:40:25	lundi 12 novembre 2018 10:45 à 10:55
2018 Nov 10 06:40:40	lundi 12 novembre 2018 10:45 à 10:55
2018 Nov 10 06:40:54	lundi 12 novembre 2018 10:45 à 10:55
2018 Nov 10 06:41:09	lundi 12 novembre 2018 10:45 à 10:55
2018 Nov 10 06:41:45	lundi 12 novembre 2018 10:45 à 10:55
2018 Nov 10 06:42:01	lundi 12 novembre 2018 10:45 à 10:55
2018 Nov 10 06:42:15	lundi 12 novembre 2018 10:45 à 10:55
2018 Nov 10 06:42:31	lundi 12 novembre 2018 10:45 à 10:55
2018 Nov 10 06:43:07	lundi 12 novembre 2018 10:45 à 10:55
2018 Nov 10 06:43:22	lundi 12 novembre 2018 10:45 à 10:55
2018 Nov 10 06:43:37	lundi 12 novembre 2018 10:45 à 10:55
2018 Nov 10 06:43:52	lundi 12 novembre 2018 10:45 à 10:55
2018 Nov 10 06:44:28	lundi 12 novembre 2018 10:45 à 10:55
2018 Nov 10 06:44:42	lundi 12 novembre 2018 10:45 à 10:55
2018 Nov 10 06:44:57	lundi 12 novembre 2018 10:45 à 10:55
2018 Nov 10 06:45:12	lundi 12 novembre 2018 10:45 à 10:55
2018 Nov 10 06:45:48	lundi 12 novembre 2018 10:45 à 10:55
2018 Nov 10 06:46:45	lundi 12 novembre 2018 10:45 à 10:55
2018 Nov 10 06:47:00	lundi 12 novembre 2018 10:45 à 10:55
2018 Nov 10 06:47:15	lundi 12 novembre 2018 10:45 à 10:55
2018 Nov 10 06:47:30	lundi 12 novembre 2018 10:45 à 10:55
2018 Nov 10 06:47:45	lundi 12 novembre 2018 10:45 à 10:55
2018 Nov 10 06:48:02	lundi 12 novembre 2018 10:45 à 10:55
2018 Nov 10 06:48:16	lundi 12 novembre 2018 10:45 à 10:55
2018 Nov 10 06:48:31	lundi 12 novembre 2018 10:45 à 10:55
2018 Nov 10 06:48:45	lundi 12 novembre 2018 10:45 à 10:55
2018 Nov 10 06:49:00	lundi 12 novembre 2018 10:45 à 10:55
2018 Nov 10 06:49:14	lundi 12 novembre 2018 10:45 à 10:55
2018 Nov 10 06:49:28	lundi 12 novembre 2018 10:45 à 10:55
2018 Nov 10 06:49:44	lundi 12 novembre 2018 10:45 à 10:55
2018 Nov 10 06:49:58	lundi 12 novembre 2018 10:45 à 10:55
2018 Nov 10 06:50:14	lundi 12 novembre 2018 10:45 à 10:55
2018 Nov 10 06:50:30	lundi 12 novembre 2018 10:45 à 10:55
2018 Nov 10 06:50:43	lundi 12 novembre 2018 10:45 à 10:55
2018 Nov 10 06:50:59	lundi 12 novembre 2018 10:45 à 10:55
2018 Nov 10 06:51:13	lundi 12 novembre 2018 10:45 à 10:55
2018 Nov 10 06:52:11	lundi 12 novembre 2018 10:45 à 10:55
2018 Nov 10 06:52:26	lundi 12 novembre 2018 10:45 à 10:55
2018 Nov 10 06:52:41	lundi 12 novembre 2018 10:45 à 10:55
2018 Nov 10 06:52:55	lundi 12 novembre 2018 10:45 à 10:55
2018 Nov 10 06:53:10	lundi 12 novembre 2018 10:45 à 10:55
2018 Nov 10 06:54:06	lundi 12 novembre 2018 10:45 à 10:55
2018 Nov 10 06:54:42	lundi 12 novembre 2018 10:45 à 10:55
2018 Nov 10 06:54:57	lundi 12 novembre 2018 10:45 à 10:55
2018 Nov 10 06:55:12	lundi 12 novembre 2018 10:45 à 10:55
2018 Nov 10 06:55:29	lundi 12 novembre 2018 10:45 à 10:55
2018 Nov 10 06:55:45	lundi 12 novembre 2018 10:45 à 10:55
2018 Nov 10 06:56:42	lundi 12 novembre 2018 10:45 à 10:55
2018 Nov 10 06:56:57	lundi 12 novembre 2018 10:45 à 10:55
2018 Nov 10 06:57:12	lundi 12 novembre 2018 10:45 à 10:55
2018 Nov 10 06:57:26	lundi 12 novembre 2018 10:45 à 10:55
2018 Nov 10 06:57:42	lundi 12 novembre 2018 10:45 à 10:55
2018 Nov 10 06:57:56	lundi 12 novembre 2018 10:45 à 10:55
2018 Nov 10 06:58:12	lundi 12 novembre 2018 10:45 à 10:55
2018 Nov 10 06:58:28	lundi 12 novembre 2018 10:45 à 10:55
2018 Nov 10 06:58:42	lundi 12 novembre 2018 10:45 à 10:55
2018 Nov 10 06:58:58	lundi 12 novembre 2018 10:45 à 10:55
2018 Nov 10 06:59:13	lundi 12 novembre 2018 10:45 à 10:55
2018 Nov 10 06:59:29	lundi 12 novembre 2018 10:45 à 10:55
2018 Nov 10 06:59:50	lundi 12 novembre 2018 10:45 à 10:55
2018 Nov 10 07:00:05	lundi 12 novembre 2018 10:45 à 10:55
2018 Nov 10 07:00:22	lundi 12 novembre 2018 10:45 à 10:55
2018 Nov 10 07:00:37	lundi 12 novembre 2018 10:45 à 10:55
2018 Nov 10 07:00:52	lundi 12 novembre 2018 10:45 à 10:55
2018 Nov 10 07:01:06	lundi 12 novembre 2018 10:45 à 10:55
2018 Nov 10 07:01:22	lundi 12 novembre 2018 10:45 à 10:55
2018 Nov 10 07:01:37	lundi 12 novembre 2018 10:45 à 10:55
2018 Nov 10 07:02:13	lundi 12 novembre 2018 10:45 à 10:55
2018 Nov 10 07:02:27	lundi 12 novembre 2018 10:45 à 10:55
2018 Nov 10 07:02:43	lundi 12 novembre 2018 10:45 à 10:55
2018 Nov 10 07:02:59	lundi 12 novembre 2018 10:45 à 10:55
2018 Nov 10 07:03:14	lundi 12 novembre 2018 10:45 à 10:55
2018 Nov 10 07:03:29	lundi 12 novembre 2018 10:45 à 10:55
2018 Nov 10 07:03:43	lundi 12 novembre 2018 10:45 à 10:55
2018 Nov 10 07:03:58	lundi 12 novembre 2018 10:45 à 10:55
2018 Nov 10 07:04:13	lundi 12 novembre 2018 10:45 à 10:55
2018 Nov 10 07:04:28	lundi 12 novembre 2018 10:45 à 10:55
2018 Nov 10 07:04:43	lundi 12 novembre 2018 10:45 à 10:55
2018 Nov 10 07:04:58	lundi 12 novembre 2018 10:45 à 10:55
2018 Nov 10 07:05:13	lundi 12 novembre 2018 10:45 à 10:55
2018 Nov 10 07:05:28	lundi 12 novembre 2018 10:45 à 10:55
2018 Nov 10 07:05:44	lundi 12 novembre 2018 10:45 à 10:55
2018 Nov 10 07:06:00	lundi 12 novembre 2018 10:45 à 10:55
2018 Nov 10 07:06:18	lundi 12 novembre 2018 10:45 à 10:55
2018 Nov 10 07:06:34	lundi 12 novembre 2018 10:45 à 10:55
2018 Nov 10 07:06:49	lundi 12 novembre 2018 10:45 à 10:55
2018 Nov 10 07:07:05	lundi 12 novembre 2018 10:45 à 10:55
2018 Nov 10 07:07:20	lundi 12 novembre 2018 10:45 à 10:55
2018 Nov 10 07:07:36	lundi 12 novembre 2018 10:45 à 10:55
2018 Nov 10 07:07:52	lundi 12 novembre 2018 10:45 à 10:55
2018 Nov 10 07:08:28	lundi 12 novembre 2018 10:45 à 10:55
2018 Nov 10 07:08:45	lundi 12 novembre 2018 10:45 à 10:55
2018 Nov 10 07:09:00	lundi 12 novembre 2018 10:45 à 10:55
2018 Nov 10 07:09:35	lundi 12 novembre 2018 10:45 à 10:55
2018 Nov 10 07:09:51	lundi 12 novembre 2018 10:45 à 10:55
2018 Nov 10 07:10:06	lundi 12 novembre 2018 10:45 à 10:55
2018 Nov 10 07:10:20	lundi 12 novembre 2018 10:45 à 10:55
2018 Nov 10 07:10:35	lundi 12 novembre 2018 10:45 à 10:55
2018 Nov 10 07:10:51	lundi 12 novembre 2018 10:45 à 10:55
2018 Nov 10 07:11:06	lundi 12 novembre 2018 10:45 à 10:55
2018 Nov 10 07:11:20	lundi 12 novembre 2018 10:45 à 10:55
2018 Nov 10 07:11:34	lundi 12 novembre 2018 10:45 à 10:55
2018 Nov 10 07:11:49	lundi 12 novembre 2018 10:45 à 10:55
2018 Nov 10 07:12:26	lundi 12 novembre 2018 10:45 à 10:55
2018 Nov 10 07:12:41	lundi 12 novembre 2018 10:45 à 10:55
2018 Nov 10 07:12:56	lundi 12 novembre 2018 10:45 à 10:55
2018 Nov 10 07:13:11	lundi 12 novembre 2018 10:45 à 10:55
2018 Nov 10 07:13:26	lundi 12 novembre 2018 10:45 à 10:55
2018 Nov 10 07:13:40	lundi 12 novembre 2018 10:45 à 10:55
2018 Nov 10 07:13:54	lundi 12 novembre 2018 10:45 à 10:55
2018 Nov 10 07:14:09	lundi 12 novembre 2018 10:45 à 10:55
2018 Nov 10 07:14:25	lundi 12 novembre 2018 10:45 à 10:55
2018 Nov 10 07:14:40	lundi 12 novembre 2018 10:45 à 10:55
2018 Nov 10 07:14:55	lundi 12 novembre 2018 10:45 à 10:55
2018 Nov 10 07:15:10	lundi 12 novembre 2018 10:45 à 10:55
2018 Nov 10 07:15:24	lundi 12 novembre 2018 10:45 à 10:55
2018 Nov 10 07:16:01	lundi 12 novembre 2018 10:45 à 10:55
2018 Nov 10 07:16:16	lundi 12 novembre 2018 10:45 à 10:55
2018 Nov 10 07:16:31	lundi 12 novembre 2018 10:45 à 10:55
2018 Nov 10 07:17:28	lundi 12 novembre 2018 10:45 à 10:55
2018 Nov 10 07:17:42	lundi 12 novembre 2018 10:45 à 10:55
2018 Nov 10 07:17:57	lundi 12 novembre 2018 10:45 à 10:55
2018 Nov 10 07:18:12	lundi 12 novembre 2018 10:45 à 10:55
2018 Nov 10 07:18:26	lundi 12 novembre 2018 10:45 à 10:55
2018 Nov 10 07:18:42	lundi 12 novembre 2018 10:45 à 10:55
2018 Nov 10 07:18:57	lundi 12 novembre 2018 10:45 à 10:55
2018 Nov 10 07:19:12	lundi 12 novembre 2018 10:45 à 10:55
2018 Nov 10 07:27:24	lundi 12 novembre 2018 10:45 à 10:55
2018 Nov 10 07:27:38	lundi 12 novembre 2018 10:45 à 10:55
2018 Nov 10 07:27:54	lundi 12 novembre 2018 10:45 à 10:55
2018 Nov 10 07:28:09	lundi 12 novembre 2018 10:45 à 10:55
2018 Nov 10 07:28:24	lundi 12 novembre 2018 10:45 à 10:55
2018 Nov 10 07:28:39	lundi 12 novembre 2018 10:45 à 10:55
2018 Nov 10 07:29:15	lundi 12 novembre 2018 10:45 à 10:55
2018 Nov 10 07:29:30	lundi 12 novembre 2018 10:45 à 10:55
2018 Nov 10 07:29:45	lundi 12 novembre 2018 10:45 à 10:55
2018 Nov 10 07:30:00	lundi 12 novembre 2018 10:45 à 10:55
2018 Nov 10 07:30:15	lundi 12 novembre 2018 10:45 à 10:55
2018 Nov 10 07:30:30	lundi 12 novembre 2018 10:45 à 10:55
2018 Nov 10 07:30:45	lundi 12 novembre 2018 10:45 à 10:55
2018 Nov 10 07:30:59	lundi 12 novembre 2018 10:45 à 10:55
2018 Nov 10 07:31:34	lundi 12 novembre 2018 10:45 à 10:55
2018 Nov 10 07:31:49	lundi 12 novembre 2018 10:45 à 10:55
2018 Nov 10 07:32:04	lundi 12 novembre 2018 10:45 à 10:55
2018 Nov 10 07:32:42	lundi 12 novembre 2018 10:45 à 10:55
2018 Nov 12 16:37:44	mardi 20 novembre 2018 09:25 à 09:35
2018 Nov 12 16:37:59	mardi 20 novembre 2018 09:25 à 09:35
2018 Nov 12 16:38:14	mardi 20 novembre 2018 09:25 à 09:35
2018 Nov 13 12:09:29	vendredi 16 novembre 2018 09:45 à 09:55
2018 Nov 13 12:09:42	vendredi 16 novembre 2018 09:45 à 09:55
2018 Nov 13 12:09:57	vendredi 16 novembre 2018 09:45 à 09:55
2018 Nov 13 12:10:13	jeudi 06 décembre 2018 11:15 à 11:25
2018 Nov 13 12:10:29	jeudi 06 décembre 2018 11:15 à 11:25
2018 Nov 13 12:20:17	jeudi 06 décembre 2018 11:15 à 11:25
2018 Nov 13 12:20:38	jeudi 06 décembre 2018 11:15 à 11:25
2018 Nov 13 16:20:13	mardi 27 novembre 2018 09:35 à 09:45
2018 Nov 13 16:20:28	mardi 27 novembre 2018 09:35 à 09:45
2018 Nov 13 19:26:32	vendredi 07 décembre 2018 10:35 à 10:45
2018 Nov 13 19:26:45	vendredi 07 décembre 2018 10:35 à 10:45
2018 Nov 14 10:44:36	vendredi 07 décembre 2018 10:05 à 10:15
2018 Nov 14 10:44:53	vendredi 07 décembre 2018 10:05 à 10:15
2018 Nov 14 10:45:11	vendredi 07 décembre 2018 10:05 à 10:15
2018 Nov 14 10:55:18	vendredi 07 décembre 2018 10:05 à 10:15
2018 Nov 14 10:55:33	vendredi 07 décembre 2018 10:05 à 10:15
2018 Nov 14 11:05:12	vendredi 07 décembre 2018 10:05 à 10:15
2018 Nov 14 11:05:26	vendredi 07 décembre 2018 10:05 à 10:15
2018 Nov 14 16:24:29	jeudi 20 décembre 2018 09:35 à 09:45
2018 Nov 14 16:24:42	jeudi 20 décembre 2018 09:35 à 09:45
2018 Nov 14 16:32:45	jeudi 20 décembre 2018 09:55 à 10:05
2018 Nov 14 16:39:36	lundi 17 décembre 2018 09:45 à 09:55
2018 Nov 14 16:39:50	lundi 17 décembre 2018 09:45 à 09:55
2018 Nov 14 17:54:11	vendredi 30 novembre 2018 10:45 à 10:55
2018 Nov 14 17:54:59	jeudi 06 décembre 2018 11:05 à 11:15
2018 Nov 14 17:55:14	jeudi 06 décembre 2018 11:05 à 11:15
2018 Nov 14 18:05:16	jeudi 06 décembre 2018 11:05 à 11:15
2018 Nov 14 19:10:15	jeudi 06 décembre 2018 11:05 à 11:15
2018 Nov 14 19:10:32	jeudi 06 décembre 2018 11:05 à 11:15
2018 Nov 14 19:20:19	jeudi 06 décembre 2018 11:05 à 11:15
2018 Nov 14 19:20:33	jeudi 06 décembre 2018 11:05 à 11:15
2018 Nov 14 19:20:47	jeudi 01 janvier 1970 17:20 à 17:20
2018 Nov 14 21:12:40	jeudi 20 décembre 2018 09:35 à 09:45
2018 Nov 14 22:05:51	vendredi 16 novembre 2018 10:45 à 10:55
2018 Nov 14 22:06:04	vendredi 16 novembre 2018 10:45 à 10:55
2018 Nov 14 22:06:17	vendredi 16 novembre 2018 10:45 à 10:55
2018 Nov 14 22:06:31	vendredi 16 novembre 2018 10:45 à 10:55
2018 Nov 14 22:06:44	vendredi 16 novembre 2018 10:45 à 10:55
2018 Nov 14 22:06:59	vendredi 16 novembre 2018 10:45 à 10:55
2018 Nov 14 22:07:14	vendredi 16 novembre 2018 10:45 à 10:55
2018 Nov 14 22:07:28	vendredi 16 novembre 2018 10:45 à 10:55
2018 Nov 14 22:07:44	vendredi 16 novembre 2018 10:45 à 10:55
2018 Nov 14 22:07:57	vendredi 16 novembre 2018 10:45 à 10:55
2018 Nov 14 22:08:11	vendredi 16 novembre 2018 10:45 à 10:55
2018 Nov 14 22:08:24	vendredi 16 novembre 2018 10:45 à 10:55
2018 Nov 14 22:08:38	vendredi 16 novembre 2018 10:45 à 10:55
2018 Nov 14 22:08:51	vendredi 16 novembre 2018 10:45 à 10:55
2018 Nov 14 22:09:05	vendredi 16 novembre 2018 10:45 à 10:55
2018 Nov 14 22:09:17	vendredi 16 novembre 2018 10:45 à 10:55
2018 Nov 14 22:09:30	vendredi 16 novembre 2018 10:45 à 10:55
2018 Nov 14 22:09:43	vendredi 16 novembre 2018 10:45 à 10:55
2018 Nov 14 22:09:56	vendredi 16 novembre 2018 10:45 à 10:55
2018 Nov 14 22:10:11	vendredi 16 novembre 2018 10:45 à 10:55
2018 Nov 14 22:10:26	vendredi 16 novembre 2018 10:45 à 10:55
2018 Nov 14 22:10:40	vendredi 16 novembre 2018 10:45 à 10:55
2018 Nov 14 22:10:54	vendredi 16 novembre 2018 10:45 à 10:55
2018 Nov 14 22:11:10	vendredi 16 novembre 2018 10:45 à 10:55
2018 Nov 14 22:11:25	vendredi 16 novembre 2018 10:45 à 10:55
2018 Nov 14 22:11:39	jeudi 01 janvier 1970 20:11 à 20:11
